…
``` r
# 제공기관명 칼럼으로 시도별 분포 확인하기
count(forest_example_data, codename) %>% arrange(desc(n))
```

    # A tibble: 118 × 2
       codename            n
       <chr>           <int>
     1 충청북도           18
     2 경기도             17
     3 경상남도           16
     4 강원도 횡성군       4
     5 제주특별자치도      4
     6 충청남도 금산군     4
     7 경기도 양평군       3
     8 경상남도 함양군     3
     9 충청북도 충주시     3
    10 경기도 양주시       2
    # ℹ 108 more rows
…
``` r
# 컬럼명 변경과 띄어쓰기 제거하기
colnames(entrance_xls) <- c("country", "JAN", "FEB", "MAR", "APR", "MAY",
                            "JUN", "JUL", "AUG", "SEP", "OCT", "NOV", "DEC")
entrance_xls$country <- gsub(" ", "", entrance_xls$country)
entrance_xls
```

    # A tibble: 67 × 13
       country      JAN    FEB   MAR   APR   MAY   JUN   JUL   AUG   SEP   OCT   NOV
       <chr>      <dbl>  <dbl> <dbl> <dbl> <dbl> <dbl> <dbl> <dbl> <dbl> <dbl> <dbl>
     1 일본      203969 211199  8347   360   413   498   755  1275   794   927  1254
     2 중국      481681 104086 16595  3935  5124  5051  9738 16275 15307 11477  9174
     3 대만      110354  53042   585   155   189   240   305   655   329   299   299
     4 필리핀     30702  20332  4539  1130  1539  2982 10166  7362  8485  9041  9700
     5 홍콩       66962  20966   262    35    24    62    78   167   115    59    89
     6 태국       38466  31777  2371   299   195   313   609   781   523   460   391
     7 말레이시아……  27549  18541   890   152    90   121   136   276   186   180   168
     8 싱가포르   10738   5909   219    48    49    50    44   124    97   134   216
     9 인도네시아……  19443  15800  3760  1864  1752  2085  4089  2830  3396  3230  3723
    10 인도        9249   5839  1587   210   415  1799  3694  2060  2408  2348  1938
    # ℹ 57 more rows
    # ℹ 1 more variable: DEC <dbl>
…
